hw5
…
Ames2018 <- filter(dataCleaned, Year == "2018")
liquor.grp.year <- group_by(Ames2018, `Day of Year`)
summarise(liquor.grp.year, sum(`Sale (Dollars)`))

## # A tibble: 146 x 2
##    `Day of Year` `sum(\`Sale (Dollars)\`)`
##            <dbl>                     <dbl>
##  1             3                  104862. 
##  2             5                   31048. 
##  3            10                  141905. 
##  4            12                   17881. 
##  5            17                  159217. 
##  6            18                      11.2
##  7            19                   15664. 
##  8            22                       0  
##  9            24                  124823. 
## 10            25                      20.8
## #  with 136 more rows

Summarize number of sales, volume of liquor sold and amount of money spent.

sale.count <- group_by(dataCleaned, `Day of Year`)
tally(sale.count)

## # A tibble: 365 x 2
##    `Day of Year`     n
##            <dbl> <int>
##  1             2   199
##  2             3  2145
##  3             4  1045
##  4             5   933
##  5             6   224
##  6             7  1287
##  7             8  1015
##  8             9  1403
##  9            10  1380
## 10            11  1207
## #  with 355 more rows

summarise(sale.count, sum(`Volume Sold (Liters)`), sum(`Day of Year`), sum(`Sale (Dollars)`))

## # A tibble: 365 x 4
##    `Day of Year` `sum(\`Volume Sold  `sum(\`Day of Yea `sum(\`Sale (Doll
##            <dbl>                <dbl>              <dbl>              <dbl>
##  1             2                1214.                398             17679.
##  2             3               15421.               6435            246547.
##  3             4                7995.               4180            129992.
##  4             5                6098.               4665             88479.
##  5             6                1575.               1344             21430.
##  6             7               10676.               9009            154379.
##  7             8               11314.               8120            155763.
##  8             9               10934.              12627            151333.
##  9            10               13904.              13800            189713.
## 10            11                8786.              13277            133764.
## #  with 355 more rows

Plot volume sold by day (use a scatterplot of volume by day and facet by month). Describe any patterns.

library(dplyr)
?facet_grid
VolumeSold <- group_by(dataCleaned, `Day of Year`)
VolumeSold

## # A tibble: 382,033 x 29
## # Groups:   Day of Year [365]
##    `Invoice/Item N Date       `Store Number` `Store Name` Address City 
##    <chr>            <date>              <dbl> <chr>        <chr>   <chr>
##  1 INV-15386000001  2018-10-31           4129 Cyclone Liq 626 Li Ames 
##  2 INV-15386000002  2018-10-31           4129 Cyclone Liq 626 Li Ames 
##  3 INV-15386200001  2018-10-31           4129 Cyclone Liq 626 Li Ames 
##  4 INV-15386600001  2018-10-31           4129 Cyclone Liq 626 Li Ames 
##  5 INV-15397500001  2018-10-31           3524 Sam's Club  305 Ai Ames 
##  6 INV-15397600001  2018-10-31           3524 Sam's Club  305 Ai Ames 
##  7 INV-15397700001  2018-10-31           3524 Sam's Club  305 Ai Ames 
##  8 INV-15397700002  2018-10-31           3524 Sam's Club  305 Ai Ames 
##  9 INV-15397700003  2018-10-31           3524 Sam's Club  305 Ai Ames 
## 10 INV-15397700004  2018-10-31           3524 Sam's Club  305 Ai Ames 
## #  with 382,023 more rows, and 23 more variables: `Zip Code` <dbl>,
## #   Latitude <dbl>, Longitude <dbl>, `County Number` <dbl>, County <chr>,
## #   Category <dbl>, `Category Name` <chr>, `Vendor Number` <dbl>, `Vendor
## #   Name` <chr>, `Item Number` <dbl>, `Item Description` <chr>,
## #   Pack <int>, `Bottle Volume (ml)` <dbl>, `State Bottle Cost` <dbl>,
## #   `State Bottle Retail` <dbl>, `Bottles Sold` <dbl>, `Sale
## #   (Dollars)` <dbl>, `Volume Sold (Liters)` <dbl>, `Volume Sold
## #   (Gallons)` <dbl>, `Day of Year` <dbl>, Year <dbl>, Month <dbl>,
## #   Day <int>
…
